\relax 
\providecommand\hyper@newdestlabel[2]{}
\catcode`"\active
\providecommand\HyperFirstAtBeginDocument{\AtBeginDocument}
\HyperFirstAtBeginDocument{\ifx\hyper@anchor\@undefined
\global\let\oldcontentsline\contentsline
\gdef\contentsline#1#2#3#4{\oldcontentsline{#1}{#2}{#3}}
\global\let\oldnewlabel\newlabel
\gdef\newlabel#1#2{\newlabelxx{#1}#2}
\gdef\newlabelxx#1#2#3#4#5#6{\oldnewlabel{#1}{{#2}{#3}}}
\AtEndDocument{\ifx\hyper@anchor\@undefined
\let\contentsline\oldcontentsline
\let\newlabel\oldnewlabel
\fi}
\fi}
\global\let\hyper@last\relax 
\gdef\HyperFirstAtBeginDocument#1{#1}
\providecommand\HyField@AuxAddToFields[1]{}
\providecommand\HyField@AuxAddToCoFields[2]{}
\select@language{italian}
\@writefile{toc}{\select@language{italian}}
\@writefile{lof}{\select@language{italian}}
\@writefile{lot}{\select@language{italian}}
\citation{LZRW}
\@writefile{toc}{\contentsline {paragraph}{Codifica plain-text}{4}{section*.4}}
\@writefile{toc}{\contentsline {paragraph}{LZRW : Lempel-Ziv-Ross-Williams}{4}{section*.5}}
\@writefile{toc}{\contentsline {subparagraph}{Codifica}{5}{section*.6}}
\@writefile{toc}{\contentsline {subparagraph}{Decodifica}{6}{section*.7}}
\providecommand*\caption@xref[2]{\@setref\relax\@undefined{#1}}
\newlabel{alg:CodificaLZRW}{{1}{7}{}{algorithm.1}{}}
\newlabel{alg:DecodificaLZRW}{{2}{8}{}{algorithm.2}{}}
\citation{LZW}
\@writefile{toc}{\contentsline {paragraph}{LZW : Lempel-Ziv-Welch}{9}{section*.8}}
\@writefile{toc}{\contentsline {subparagraph}{Codifica}{9}{section*.9}}
\newlabel{alg:CodificaLZW}{{3}{10}{}{algorithm.3}{}}
\@writefile{toc}{\contentsline {subparagraph}{Decodifica}{10}{section*.10}}
\newlabel{alg:decodificaLZW}{{4}{12}{}{algorithm.4}{}}
\@writefile{toc}{\contentsline {paragraph}{Codifica plain-text}{12}{section*.12}}
\@writefile{toc}{\contentsline {paragraph}{Codifica convoluzionale}{12}{section*.13}}
\@writefile{toc}{\contentsline {subparagraph}{Codifica}{12}{section*.14}}
\newlabel{eqn:convoluzione}{{1}{13}{Codifica}{equation.0.0.1}{}}
\newlabel{fig:memoria}{{1}{14}{}{figure.caption.15}{}}
\citation{codiciConvoluzionali}
\@writefile{toc}{\contentsline {subparagraph}{Decodifica}{15}{section*.17}}
\@writefile{lof}{\contentsline {figure}{\numberline {2}{\ignorespaces a}}{16}{figure.caption.16}}
\newlabel{fig:trasduttoreStatiFiniti}{{2}{16}{a}{figure.caption.16}{}}
\citation{codiciConvoluzionali}
\newlabel{alg:viterbi}{{5}{18}{}{algorithm.5}{}}
\citation{modelloGilbert}
\citation{modelloGilbert}
\@writefile{toc}{\contentsline {paragraph}{Simmetrico Binario}{19}{section*.19}}
\@writefile{toc}{\contentsline {paragraph}{WLan}{19}{section*.20}}
\newlabel{fig:burstiness}{{3a}{19}{}{figure.caption.21}{}}
\newlabel{sub@fig:burstiness}{{a}{19}{}{figure.caption.21}{}}
\newlabel{fig:errSingoloBit}{{3b}{19}{}{figure.caption.21}{}}
\newlabel{sub@fig:errSingoloBit}{{b}{19}{}{figure.caption.21}{}}
\newlabel{fig:modelloGilbert}{{3}{19}{}{figure.caption.21}{}}
\bibcite{codiciConvoluzionali}{1}
\bibcite{modelloGilbert}{2}
\bibcite{LZRW}{3}
\bibcite{LZW}{4}
